{
  "type": "group",
  "displayField": null,
  "icon": "add-separator",
  "key": "icon-separator",
  "label": "Icon Trenner",
  "tab": null,
  "value": [
    {
      "type": "columns",
      "default": null,
      "icon": "columns",
      "key": "icons",
      "label": "Icons",
      "options": {
        "allowEditing": true,
        "itemLabel": "Icon"
      },
      "tab": null,
      "validation": {
        "max": null,
        "min": null,
        "unit": "columns"
      },
      "value": [
        {
          "type": "group",
          "displayField": "label",
          "icon": "group",
          "key": "labelledIcon",
          "label": "Beschriftetes Icon",
          "tab": null,
          "value": [
            {
              "type": "select",
              "icon": "grid",
              "key": "icon",
              "label": "Icon",
              "tab": null,
              "value": null,
              "version": 2,
              "visibility": {
                "hidden": false,
                "showByValue": {
                  "field": null
                }
              },
              "default": null,
              "options": {
                "filterable": true,
                "removable": true,
                "placeholder": "Wähle ein Icon…",
                "options": [
                  {
                    "label": "Stadler Logo",
                    "value": "stadler-logo"
                  },
                  {
                    "label": "Schalttafel",
                    "value": "adjustments"
                  },
                  {
                    "label": "Wecker",
                    "value": "alarmclock"
                  },
                  {
                    "label": "Anker",
                    "value": "anchor"
                  },
                  {
                    "label": "Blende",
                    "value": "aperture"
                  },
                  {
                    "label": "Kette",
                    "value": "attachements"
                  },
                  {
                    "label": "Balkendiagramm",
                    "value": "bargraph"
                  },
                  {
                    "label": "Korb",
                    "value": "basket"
                  },
                  {
                    "label": "Becherglas",
                    "value": "beaker"
                  },
                  {
                    "label": "Fahrrad",
                    "value": "bike"
                  },
                  {
                    "label": "Offenes Buch",
                    "value": "book-open"
                  },
                  {
                    "label": "Aktentasche",
                    "value": "briefcase"
                  },
                  {
                    "label": "Browser",
                    "value": "browser"
                  },
                  {
                    "label": "Kalender",
                    "value": "calendar"
                  },
                  {
                    "label": "Kamera",
                    "value": "camera"
                  },
                  {
                    "label": "Warnung",
                    "value": "caution"
                  },
                  {
                    "label": "Chat-Blasen",
                    "value": "chat"
                  },
                  {
                    "label": "Zirkel",
                    "value": "circle-compass"
                  },
                  {
                    "label": "Klemmbrett",
                    "value": "clipboard"
                  },
                  {
                    "label": "Uhr",
                    "value": "clock"
                  },
                  {
                    "label": "Wolke",
                    "value": "cloud"
                  },
                  {
                    "label": "Kompass",
                    "value": "compass"
                  },
                  {
                    "label": "Monitor",
                    "value": "desktop"
                  },
                  {
                    "label": "Drehschalter",
                    "value": "dial"
                  },
                  {
                    "label": "Dokumente",
                    "value": "documents"
                  },
                  {
                    "label": "Dokument",
                    "value": "document"
                  },
                  {
                    "label": "Download",
                    "value": "download"
                  },
                  {
                    "label": "Dribbble",
                    "value": "dribbble"
                  },
                  {
                    "label": "Stift (in Box)",
                    "value": "edit"
                  },
                  {
                    "label": "Umschlag",
                    "value": "envelope"
                  },
                  {
                    "label": "Erweitern",
                    "value": "expand"
                  },
                  {
                    "label": "Facebook",
                    "value": "facebook"
                  },
                  {
                    "label": "Flagge",
                    "value": "flag"
                  },
                  {
                    "label": "Fokus",
                    "value": "focus"
                  },
                  {
                    "label": "Zahnräder",
                    "value": "gears"
                  },
                  {
                    "label": "Atom",
                    "value": "genius"
                  },
                  {
                    "label": "Geschenk",
                    "value": "gift"
                  },
                  {
                    "label": "Weltkugel",
                    "value": "global"
                  },
                  {
                    "label": "Globus",
                    "value": "globe"
                  },
                  {
                    "label": "Google+",
                    "value": "googleplus"
                  },
                  {
                    "label": "Raster",
                    "value": "grid"
                  },
                  {
                    "label": "Lächelnder Smiley",
                    "value": "happy"
                  },
                  {
                    "label": "Radioaktiv",
                    "value": "hazardous"
                  },
                  {
                    "label": "Herz",
                    "value": "heart"
                  },
                  {
                    "label": "Heißluftballon",
                    "value": "hotairballoon"
                  },
                  {
                    "label": "Sanduhr",
                    "value": "hourglass"
                  },
                  {
                    "label": "Schlüssel",
                    "value": "key"
                  },
                  {
                    "label": "Laptop",
                    "value": "laptop"
                  },
                  {
                    "label": "Ebenen",
                    "value": "layers"
                  },
                  {
                    "label": "Rettungsring",
                    "value": "lifesaver"
                  },
                  {
                    "label": "Glühbirne",
                    "value": "lightbulb"
                  },
                  {
                    "label": "Liniendiagramm",
                    "value": "linegraph"
                  },
                  {
                    "label": "LinkedIn",
                    "value": "linkedin"
                  },
                  {
                    "label": "Türschloss",
                    "value": "lock"
                  },
                  {
                    "label": "Lupe",
                    "value": "magnifying-glass"
                  },
                  {
                    "label": "Karten-Marker",
                    "value": "map-pin"
                  },
                  {
                    "label": "Landkarte",
                    "value": "map"
                  },
                  {
                    "label": "Megafon",
                    "value": "megaphone"
                  },
                  {
                    "label": "Mikrofon",
                    "value": "mic"
                  },
                  {
                    "label": "Handy",
                    "value": "mobile"
                  },
                  {
                    "label": "Zeitung",
                    "value": "newspaper"
                  },
                  {
                    "label": "Notizbuch",
                    "value": "notebook"
                  },
                  {
                    "label": "Pinsel",
                    "value": "paintbrush"
                  },
                  {
                    "label": "Büroklammer",
                    "value": "paperclip"
                  },
                  {
                    "label": "Stift",
                    "value": "pencil"
                  },
                  {
                    "label": "Telefon",
                    "value": "phone"
                  },
                  {
                    "label": "Bilder",
                    "value": "pictures"
                  },
                  {
                    "label": "Bild",
                    "value": "picture"
                  },
                  {
                    "label": "Tortendiagramm",
                    "value": "piechart"
                  },
                  {
                    "label": "Leinwand mit Graph",
                    "value": "presentation"
                  },
                  {
                    "label": "Preisetiketts",
                    "value": "pricetags"
                  },
                  {
                    "label": "Drucker",
                    "value": "printer"
                  },
                  {
                    "label": "Umriss Weiblich",
                    "value": "profile-female"
                  },
                  {
                    "label": "Umriss Männlich",
                    "value": "profile-male"
                  },
                  {
                    "label": "Puzzleteil",
                    "value": "puzzle"
                  },
                  {
                    "label": "Anführungszeichen (in Kreis)",
                    "value": "quote"
                  },
                  {
                    "label": "Recycling Symbol",
                    "value": "recycle"
                  },
                  {
                    "label": "Aktualisieren Symbol",
                    "value": "refresh"
                  },
                  {
                    "label": "Lesezeichen",
                    "value": "ribbon"
                  },
                  {
                    "label": "RSS",
                    "value": "rss"
                  },
                  {
                    "label": "Trauriger Smiley",
                    "value": "sad"
                  },
                  {
                    "label": "Schere",
                    "value": "scissors"
                  },
                  {
                    "label": "Zielmarker",
                    "value": "scope"
                  },
                  {
                    "label": "Dokument mit Lupe",
                    "value": "search"
                  },
                  {
                    "label": "Schild",
                    "value": "shield"
                  },
                  {
                    "label": "Tacho",
                    "value": "speedometer"
                  },
                  {
                    "label": "Springer (Schach)",
                    "value": "strategy"
                  },
                  {
                    "label": "Wegweiser",
                    "value": "streetsign"
                  },
                  {
                    "label": "Tablet",
                    "value": "tablet"
                  },
                  {
                    "label": "Zielscheibe",
                    "value": "target"
                  },
                  {
                    "label": "Teleskop",
                    "value": "telescope"
                  },
                  {
                    "label": "Werkzeugkasten",
                    "value": "toolbox"
                  },
                  {
                    "label": "Stift und Lineal",
                    "value": "tools"
                  },
                  {
                    "label": "Schraubendreher und -schlüssel",
                    "value": "tools-2"
                  },
                  {
                    "label": "Pokal",
                    "value": "trophy"
                  },
                  {
                    "label": "Tumblr",
                    "value": "tumblr"
                  },
                  {
                    "label": "Twitter",
                    "value": "twitter"
                  },
                  {
                    "label": "Upload",
                    "value": "upload"
                  },
                  {
                    "label": "Video",
                    "value": "video"
                  },
                  {
                    "label": "Geldbeutel",
                    "value": "wallet"
                  },
                  {
                    "label": "Weinglas",
                    "value": "wine"
                  }
                ]
              },
              "validation": {
                "required": false
              },
              "customField": "icon-picker.json"
            },
            {
              "type": "text",
              "default": null,
              "icon": "text-input",
              "key": "label",
              "label": "Label",
              "localised": true,
              "options": {
                "wrapping": true,
                "multiline": false
              },
              "tab": null,
              "validation": {
                "enforceMinMax": true,
                "max": null,
                "min": null,
                "regex": null,
                "regexError": null,
                "required": false,
                "unit": "length"
              },
              "value": null,
              "version": 1,
              "visibility": {
                "hidden": false,
                "showByValue": {
                  "field": null
                }
              }
            }
          ],
          "version": 1,
          "visibility": {
            "hidden": false,
            "showByValue": {
              "field": null
            }
          }
        }
      ],
      "version": 1,
      "visibility": {
        "hidden": false,
        "showByValue": {
          "field": null
        }
      }
    },
    {
      "type": "image",
      "default": null,
      "icon": "image",
      "key": "backgroundImage",
      "label": "Hintergrundbild",
      "options": {
        "resolutionHint": "",
        "removable": true,
        "simple": false
      },
      "tab": null,
      "validation": {
        "max": 1,
        "required": false,
        "unit": "filesize (MB)"
      },
      "value": null,
      "version": 1,
      "visibility": {
        "hidden": false,
        "showByValue": {
          "field": null
        }
      }
    },
    {
      "type": "container",
      "icon": "placeholder",
      "key": "___mb_visual_container",
      "label": "Blockeinstellungen",
      "tab": null,
      "value": [
        {
          "type": "text",
          "default": null,
          "icon": "text-input",
          "key": "id",
          "label": "ID des Abschnitts",
          "localised": false,
          "options": {
            "wrapping": true,
            "multiline": false
          },
          "validation": {
            "enforceMinMax": true,
            "max": null,
            "min": null,
            "regex": null,
            "regexError": null,
            "required": false,
            "unit": "length"
          },
          "value": null,
          "version": 1,
          "visibility": {
            "hidden": false,
            "showByValue": {
              "field": null
            }
          },
          "tab": null
        },
        {
          "type": "text",
          "default": null,
          "icon": "text-input",
          "key": "shortLinkLabel",
          "label": "Label des Menüeintrags",
          "localised": true,
          "options": {
            "wrapping": true,
            "multiline": false
          },
          "validation": {
            "enforceMinMax": true,
            "max": null,
            "min": null,
            "regex": null,
            "regexError": null,
            "required": false,
            "unit": "length"
          },
          "value": null,
          "version": 1,
          "visibility": {
            "hidden": false,
            "showByValue": {
              "field": null
            }
          },
          "tab": null
        },
        {
          "type": "heading",
          "icon": "heading-spaced",
          "key": "___mb_visual_heading",
          "label": "Shortlink Explainer",
          "options": {
            "heading": "",
            "description": "Die <strong>ID </strong>kann dazu verwendet werden, um über einen Link oder Menüeintrag direkt zu diesem Block zu springen. Außerdem tauchen alle Blöcke mit einer <strong>ID</strong> unter dem angegebenen <strong>Label</strong> im Untermenü der Seite auf. <em>HTML-ID-Einschränkungen beachten und dafür sorgen, dass diese ID nur einmal auf der Seite erscheint!</em>"
          },
          "version": 2,
          "visibility": {
            "showByValue": {
              "field": null
            }
          },
          "visualOnly": true,
          "tab": null
        }
      ],
      "version": 3,
      "visibility": {
        "hidden": false,
        "showByValue": {
          "field": null
        }
      },
      "options": {
        "collapsible": true,
        "collapseByDefault": true,
        "row": false,
        "bordered": false
      },
      "visualOnly": true,
      "customField": "block-interface.json"
    },
    {
      "type": "text",
      "default": "icon-separator",
      "icon": "text-input",
      "key": "template",
      "label": "Template",
      "localised": false,
      "options": {
        "wrapping": true,
        "multiline": false
      },
      "tab": null,
      "validation": {
        "enforceMinMax": true,
        "max": null,
        "min": null,
        "regex": null,
        "regexError": null,
        "required": false,
        "unit": "length"
      },
      "value": null,
      "version": 1,
      "visibility": {
        "hidden": true,
        "showByValue": {
          "field": null
        }
      }
    }
  ],
  "version": 1,
  "visibility": {
    "hidden": false,
    "showByValue": {
      "field": null
    }
  },
  "description": "A separator showing a grid of labelled icons",
  "group": "Blocks"
}