{
  "type": "group",
  "displayField": null,
  "icon": "heading-spaced",
  "key": "page-title",
  "label": "Seitentitel",
  "tab": null,
  "value": [
    {
      "type": "image",
      "default": null,
      "icon": "image",
      "key": "backgroundImage",
      "label": "Hintergrundbild",
      "options": {
        "resolutionHint": "",
        "removable": true,
        "simple": false
      },
      "tab": null,
      "validation": {
        "max": 1,
        "required": false,
        "unit": "filesize (MB)"
      },
      "value": null,
      "version": 1,
      "visibility": {
        "hidden": false,
        "showByValue": {
          "field": null
        }
      }
    },
    {
      "type": "container",
      "icon": "placeholder",
      "key": "___mb_visual_container",
      "label": "Blockeinstellungen",
      "tab": null,
      "value": [
        {
          "type": "text",
          "default": null,
          "icon": "text-input",
          "key": "id",
          "label": "ID des Abschnitts",
          "localised": false,
          "options": {
            "wrapping": true,
            "multiline": false
          },
          "validation": {
            "enforceMinMax": true,
            "max": null,
            "min": null,
            "regex": null,
            "regexError": null,
            "required": false,
            "unit": "length"
          },
          "value": null,
          "version": 1,
          "visibility": {
            "hidden": false,
            "showByValue": {
              "field": null
            }
          },
          "tab": null
        },
        {
          "type": "text",
          "default": null,
          "icon": "text-input",
          "key": "shortLinkLabel",
          "label": "Label des Menüeintrags",
          "localised": true,
          "options": {
            "wrapping": true,
            "multiline": false
          },
          "validation": {
            "enforceMinMax": true,
            "max": null,
            "min": null,
            "regex": null,
            "regexError": null,
            "required": false,
            "unit": "length"
          },
          "value": null,
          "version": 1,
          "visibility": {
            "hidden": false,
            "showByValue": {
              "field": null
            }
          },
          "tab": null
        },
        {
          "type": "heading",
          "icon": "heading-spaced",
          "key": "___mb_visual_heading",
          "label": "Shortlink Explainer",
          "options": {
            "heading": "",
            "description": "Die <strong>ID </strong>kann dazu verwendet werden, um über einen Link oder Menüeintrag direkt zu diesem Block zu springen. Außerdem tauchen alle Blöcke mit einer <strong>ID</strong> unter dem angegebenen <strong>Label</strong> im Untermenü der Seite auf. <em>HTML-ID-Einschränkungen beachten und dafür sorgen, dass diese ID nur einmal auf der Seite erscheint!</em>"
          },
          "version": 2,
          "visibility": {
            "showByValue": {
              "field": null
            }
          },
          "visualOnly": true,
          "tab": null
        }
      ],
      "version": 3,
      "visibility": {
        "hidden": false,
        "showByValue": {
          "field": null
        }
      },
      "options": {
        "collapsible": true,
        "collapseByDefault": true,
        "row": false,
        "bordered": false
      },
      "visualOnly": true,
      "customField": "block-interface.json"
    },
    {
      "type": "text",
      "default": "page-title",
      "icon": "text-input",
      "key": "template",
      "label": "Template",
      "localised": false,
      "options": {
        "wrapping": true,
        "multiline": false
      },
      "tab": null,
      "validation": {
        "enforceMinMax": true,
        "max": null,
        "min": null,
        "regex": null,
        "regexError": null,
        "required": false,
        "unit": "length"
      },
      "value": null,
      "version": 1,
      "visibility": {
        "hidden": true,
        "showByValue": {
          "field": null
        }
      }
    }
  ],
  "version": 1,
  "visibility": {
    "hidden": false,
    "showByValue": {
      "field": null
    }
  },
  "description": "A block for introducing a page that doesn’t have a fullscreen slider",
  "group": "Blocks"
}