{
  "type": "group",
  "customField": null,
  "description": "A block for displaying an array of specific download items",
  "displayField": "heading.heading",
  "group": "Blocks",
  "icon": "download",
  "key": "specific-download-items",
  "label": "Spezifische Downloads",
  "tab": null,
  "value": [
    {
      "type": "text",
      "default": {
        "de": "Passende Downloads zum Thema",
        "en": "Downloadable Content for this Topic"
      },
      "icon": "text-input",
      "key": "heading",
      "label": "Überschrift",
      "localised": true,
      "options": {
        "wrapping": true,
        "multiline": false
      },
      "validation": {
        "enforceMinMax": true,
        "max": null,
        "min": null,
        "regex": null,
        "regexError": null,
        "required": false,
        "unit": "length"
      },
      "value": null,
      "version": 1,
      "visibility": {
        "hidden": false,
        "showByValue": {
          "field": null
        }
      }
    },
    {
      "type": "columns",
      "default": null,
      "icon": "columns",
      "key": "downloads",
      "label": "Downloads",
      "options": {
        "allowEditing": true,
        "itemLabel": "Download"
      },
      "validation": {
        "max": null,
        "min": null,
        "unit": "columns"
      },
      "value": [
        {
          "type": "reference",
          "default": null,
          "icon": "document-link",
          "key": "download-item",
          "label": "Download",
          "localised": false,
          "options": {
            "collections": [
              "/.mattrbld/collections/downloads.json"
            ],
            "field": "id",
            "removable": false
          },
          "validation": {
            "required": true
          },
          "value": null,
          "version": 2,
          "visibility": {
            "hidden": false,
            "showByValue": {
              "field": null
            }
          }
        }
      ],
      "version": 1,
      "visibility": {
        "hidden": false,
        "showByValue": {
          "field": null
        }
      }
    },
    {
      "type": "container",
      "icon": "placeholder",
      "key": "___mb_visual_container",
      "label": "Blockeinstellungen",
      "value": [
        {
          "type": "text",
          "default": null,
          "icon": "text-input",
          "key": "id",
          "label": "ID des Abschnitts",
          "localised": false,
          "options": {
            "wrapping": true,
            "multiline": false
          },
          "validation": {
            "enforceMinMax": true,
            "max": null,
            "min": null,
            "regex": null,
            "regexError": null,
            "required": false,
            "unit": "length"
          },
          "value": null,
          "version": 1,
          "visibility": {
            "hidden": false,
            "showByValue": {
              "field": null
            }
          }
        },
        {
          "type": "text",
          "default": null,
          "icon": "text-input",
          "key": "shortLinkLabel",
          "label": "Label des Menüeintrags",
          "localised": true,
          "options": {
            "wrapping": true,
            "multiline": false
          },
          "validation": {
            "enforceMinMax": true,
            "max": null,
            "min": null,
            "regex": null,
            "regexError": null,
            "required": false,
            "unit": "length"
          },
          "value": null,
          "version": 1,
          "visibility": {
            "hidden": false,
            "showByValue": {
              "field": null
            }
          }
        },
        {
          "type": "heading",
          "icon": "heading-spaced",
          "key": "___mb_visual_heading",
          "label": "Shortlink Explainer",
          "options": {
            "heading": "",
            "description": "Die <strong>ID </strong>kann dazu verwendet werden, um über einen Link oder Menüeintrag direkt zu diesem Block zu springen. Außerdem tauchen alle Blöcke mit einer <strong>ID</strong> unter dem angegebenen <strong>Label</strong> im Untermenü der Seite auf. <em>HTML-ID-Einschränkungen beachten und dafür sorgen, dass diese ID nur einmal auf der Seite erscheint!</em>"
          },
          "version": 2,
          "visibility": {
            "showByValue": {
              "field": null
            }
          },
          "visualOnly": true
        }
      ],
      "version": 3,
      "visibility": {
        "hidden": false,
        "showByValue": {
          "field": null
        }
      },
      "options": {
        "collapsible": true,
        "collapseByDefault": true,
        "row": false,
        "bordered": false
      },
      "visualOnly": true,
      "customField": "block-interface.json"
    },
    {
      "type": "text",
      "default": "specific-download-items",
      "icon": "text-input",
      "key": "template",
      "label": "Template",
      "localised": false,
      "options": {
        "wrapping": true,
        "multiline": false
      },
      "validation": {
        "enforceMinMax": true,
        "max": null,
        "min": null,
        "regex": null,
        "regexError": null,
        "required": false,
        "unit": "length"
      },
      "value": null,
      "version": 1,
      "visibility": {
        "hidden": true,
        "showByValue": {
          "field": null
        }
      }
    }
  ],
  "version": 3,
  "visibility": {
    "hidden": false,
    "showByValue": {
      "field": null
    }
  }
}