{
  "displayName": "Isowand- & Dachsysteme",
  "meta": {
    "description": {
      "de": "Die Firma Stadler Isobau GmbH montiert Isopaneele und Dachpaneele zur thermischen Isolierung und optischen Gestaltung von Gebäuden für den Industriebau und Hallenbau.",
      "en": "Stadler Technical Constructions assembles insulated sandwich and roofing panels for the thermal insulation and visual design of buildings for industrial and hangar construction",
      "ru": ""
    },
    "keywords": {
      "de": [],
      "en": [],
      "ru": []
    },
    "image": {
      "src": "/content/uploads/social-image-test.jpg",
      "alt": {
        "de": "Logo der Stadler GmbH",
        "en": "Logo of Stadler GmbH",
        "ru": "Логотип компании Stadler GmbH"
      },
      "title": {
        "de": "",
        "en": "",
        "ru": ""
      }
    },
    "canonicalUrl": null,
    "cardStyle": "summary"
  },
  "menuIndex": 0,
  "template": "Default",
  "name": {
    "de": "ISOWAND-& DACHSYSTEME",
    "en": "INSULATED WALL AND ROOFING SYSTEMS",
    "ru": "Стенка изоляции- & КРОВЕЛЬНЫЕ СИСТЕМЫ"
  },
  "content": [
    {
      "backgroundImage": {
        "src": "/content/uploads/services/technical-construction/isobau-referenzen_isowand-dachsysteme_projekt-1_full.jpg",
        "alt": {
          "de": "Eine große Lagerhalle mit Regalen und blauen Stahlträgern",
          "en": "A large warehouse with shelving and blue steel beams",
          "ru": ""
        },
        "title": {
          "de": "",
          "en": "",
          "ru": ""
        }
      },
      "id": null,
      "shortLinkLabel": {
        "de": "",
        "en": "",
        "ru": ""
      },
      "template": "page-title",
      "___mb_type": "page-title"
    },
    {
      "heading": {
        "de": "",
        "en": "",
        "ru": ""
      },
      "columns": [
        {
          "de": "<p>Hier kommt es heute vor allem auf eine besonders schnelle und reibungslose Montage an, bei der jeder eingesparte Handgriff zählt. Darüber hinaus wird in den meisten Fällen eine luftdichte und wärmebrückenfreie Konstruktion der Außenwand gefordert. Wir verwenden die modernsten und bewährtesten Verbindungssysteme für Schnellbau- Dämmpaneele, die es auf dem Markt gibt. Sie lassen sich problemlos und passgenau zusammenfügen - das spart Ihnen Zeit und damit Geld.</p><p>Präzisionsdichtungen gewährleisten eine luftdichte und wärmefreie Verbindung - die wichtigste Grundvoraussetzung für hohe Energieeinsparung.</p>",
          "en": "<p>In this field, it is especially important today to guarantee a quick and smooth assembly where every saved step counts. Beyond that, an airtight and thermal-bridge-free construction of the outer walls is required in most cases. We only use the most modern and well-tried fast-construction insulation panels available on the market. They can be assembled easily and exactly—which will save you time and thus money.</p><p>Precision seals ensure an airtight connection free of heat – the most important prerequisite for high energy conservation.</p>",
          "ru": "<p>Здесь необходима особенно быстрая и гладкая сборка, в которой важен каждый шаг,каждое действие. Кроме того в большинстве случаев требуется воздухонепроницаемый, тепловой мост- конструкция без внешней стенки. Мы используем самые современные, испытанные соединительные системы для гипсокартона, которые существуют на рынке. Они могут быть легко и точно соеденены - вы экономите время и деньги.</p><p>Высокоточные уплотнения обеспечивают герметичные и тепло свободное соединения -это является важной предпосылкой для высокой экономии энергии.</p>"
        },
        {
          "de": "<p>Wir bieten für Pult- und Satteldächer im Hallen- und Verwaltungsbau und für die Dachsanierung eine in jeder Hinsicht perfekte Problemlösung. Die ebenso einfach wie schnell herzustellende Paneelverbindung liefert nicht nur ein langzeitdichtes Dach mit bauphysikalisch optimalen Werten - sie spart auch beträchtliche Zeit im Montageablauf ein.</p><p>Bei großen Spannweiten und erhöhten Anforderungen an Schall- und Brandschutz bieten wir Fassaden in Kassettenbauweise an. Als Fassadenoberflächen können unterschiedliche Oberflächenstrukturen gewählt werden.</p>",
          "en": "<p>For pent and saddle roofs of hangars and administration buildings as well as for roofing renovations, we offer an all-around perfect solution. The panels are equally easy and quick to build and do not only deliver a long-term leakproof roof wtih optimal physical construction values, but also save a considerable amount of time in assembly.</p><p>For higher span widths and demands of sound and fire-proofing, we also offer facades built in cartridge construction. Different textures can be chosen for front surfaces.</p>",
          "ru": "<p>Мы предлагаем совершенные во всех отношениях решения проблем для односкатных  и остроконечных крыш в залах и административных зданиях, а также для ремонта крыши. Легко и быстро соединённые между собой панели обеспечивают не только плотную, но и долгосрочную крышу, а также значительно экономит время в процессе сборки.</p><p>Для больших пролетов и повышенных требований к шуму и противопожарной защите, мы имеем фасады в кассетной конструкции. Качество фасадных поверхностей, различные поверхностные структуры могут быть выбраны.</p>"
        }
      ],
      "highlighted": null,
      "id": null,
      "shortLinkLabel": {
        "de": "",
        "en": "",
        "ru": ""
      },
      "template": "text",
      "___mb_type": "text"
    },
    {
      "heading": {
        "de": "",
        "en": "",
        "ru": ""
      },
      "columns": [
        {
          "de": "<ul><li><p>Industrie- und Hallenbau</p></li><li><p>Wandpaneele für Aussenwände</p></li></ul>",
          "en": "<ul><li><p>Industrial and hangar construction</p></li><li><p>Wall panels for outer walls</p></li></ul>",
          "ru": "<ul><li><p>промышленные помещения - строительство цехов</p></li><li><p>стеновые панели для наружных стен</p></li></ul>"
        },
        {
          "de": "<ul><li><p>Kassettenwände mit Trapezblechfassaden</p></li><li><p>Dachpaneele für geneigte Dächer in Sandwichbauweise</p></li></ul>",
          "en": "<ul><li><p>Cassette walls wtih trapezoidal sheet fronts</p></li><li><p>Roof panels for suitable roofs in sandwhich construction</p></li></ul>",
          "ru": "<ul><li><p>кассетные стены  трапециевидных фронтов</p></li><li><p>крыши из панелей для скатных крыш в многослойной конструкции</p></li></ul>"
        }
      ],
      "highlighted": true,
      "id": null,
      "shortLinkLabel": {
        "de": "",
        "en": "",
        "ru": ""
      },
      "template": "text",
      "___mb_type": "text"
    },
    {
      "images": [
        {
          "displayName": "ISODACHSYSTEM HAUNSTETTEN",
          "src": "/content/uploads/services/technical-construction/isobau-referenzen_isowand-dachsysteme_projekt-1_full.jpg",
          "title": {
            "de": "ISODACHSYSTEM HAUNSTETTEN",
            "ru": "Изолированная крыша  HAUNSTETTEN (ФРГ)",
            "en": "INSULATED ROOFING SYSTEM HAUNSTETTEN"
          },
          "alt": {
            "de": "Eine große Lagerhalle mit Regalen und blauen Stahlträgern",
            "en": "A large warehouse with shelving and blue steel beams",
            "ru": ""
          }
        },
        {
          "displayName": "ISOWANDSYSTEM LÜBECK",
          "src": "/content/uploads/services/technical-construction/isobau-referenzen_isowand-dachsysteme_projekt-2_full.jpg",
          "title": {
            "de": "ISOWANDSYSTEM LÜBECK",
            "ru": "Система изоляции стены LÜBECK (ФРГ)",
            "en": "INSULATED WALL SYSTEM LÜBECK"
          },
          "alt": {
            "de": "Zwei weiße Gebäude aus Paneelen mit zwei LKW im Vordergrund",
            "en": "Two white buildings constructed out of panels with two trucks in the foreground",
            "ru": ""
          }
        },
        {
          "displayName": "RWA-DUNKELKLAPPEN FÜR KÜHLHAUS AVE MARIA",
          "title": {
            "de": "RWA-DUNKELKLAPPEN FÜR KÜHLHAUS AVE MARIA",
            "en": "RWA-OPAQUE SKYLIGHTS FOR COLD STORAGE AVE MARIA",
            "ru": "Изолированный люк HAUS AVE MARIA (ФРГ)"
          },
          "src": "/content/uploads/services/technical-construction/isobau-referenzen_isowand-dachsysteme_projekt-3_full.jpg",
          "alt": {
            "de": "Dach eines Gebäudes mit Solarpaneel und Dachfenstern, sowie Wald im Hintergrund",
            "en": "Roof of a building with a solar panel and skylights and a forest in the background",
            "ru": ""
          }
        },
        {
          "displayName": "ISOWANDSYSTEM AUGSBURG",
          "title": {
            "de": "ISOWANDSYSTEM AUGSBURG",
            "ru": "Система изоляции AUGSBURG (ФРГ)",
            "en": "INSULATED WALL SYSTEM AUGSBURG"
          },
          "src": "/content/uploads/services/technical-construction/isobau-referenzen_isowand-dachsysteme_projekt-4_full.jpg",
          "alt": {
            "de": "Paneelbau hinter einem niedrigeren Gebäude mit einer vergoldeten Backsteinwand",
            "en": "Panel construction behind a lower building with a gilded brick wall",
            "ru": ""
          }
        },
        {
          "displayName": "ISOWANDSYSTEM AUGSBURG 2",
          "title": {
            "de": "ISOWANDSYSTEM AUGSBURG",
            "ru": "Система изоляции AUGSBURG (ФРГ)",
            "en": "INSULATED WALL SYSTEM AUGSBURG"
          },
          "src": "/content/uploads/services/technical-construction/isobau-referenzen_isowand-dachsysteme_projekt-5_full.jpg",
          "alt": {
            "de": "Paneelbau mit Fenstern im unteren Bereich an einer Straße mit Bauarbeiten",
            "en": "Panel building with windows in the lower section next to a street with ongoing roadworks",
            "ru": ""
          }
        },
        {
          "displayName": "ISOWANDSYSTEM GÖPPINGEN",
          "title": {
            "de": "ISOWANDSYSTEM GÖPPINGEN",
            "ru": "Система изоляции GÖPPINGEN (ФРГ)",
            "en": "INSULATED WALL SYSTEM GÖPPINGEN"
          },
          "src": "/content/uploads/services/technical-construction/isobau-referenzen_isowand-dachsysteme_projekt-6_full.jpg",
          "alt": {
            "de": "Sehr rote Gebäudeseite unter blauem Himmel",
            "en": "Very red side of a building under the blue sky",
            "ru": ""
          }
        }
      ],
      "id": null,
      "shortLinkLabel": {
        "de": "",
        "en": "",
        "ru": ""
      },
      "template": "gallery",
      "___mb_type": "gallery"
    },
    {
      "heading": {
        "de": "Passende Downloads zum Thema",
        "en": "Downloadable Content for this Topic",
        "ru": ""
      },
      "downloads": [
        "dl/infoblatt-isobau-03-isowand-und-dachsysteme"
      ],
      "id": null,
      "shortLinkLabel": null,
      "template": "specific-download-items",
      "___mb_type": "specific-download-items"
    },
    {
      "heading": {
        "de": "Sie möchten mit uns arbeiten?",
        "ru": "ВЫ ХОТИТЕ РАБОТАТЬ С НАМИ?",
        "en": "YOU WANT TO WORK WITH US?"
      },
      "text": {
        "de": "",
        "en": "",
        "ru": ""
      },
      "cta": {
        "href": {
          "de": "/kontakt/",
          "en": "/en/contact-us/",
          "ru": "/ru/kontakt/"
        },
        "label": {
          "de": "Projekt starten",
          "ru": "СТАРТ ПРОЕКТА",
          "en": "START PROJECT NOW"
        },
        "title": {
          "de": "",
          "en": "",
          "ru": ""
        }
      },
      "image": {
        "src": "",
        "alt": {
          "de": "",
          "en": "",
          "ru": ""
        },
        "title": {
          "de": "",
          "en": "",
          "ru": ""
        }
      },
      "backgroundImage": {
        "src": "",
        "alt": {
          "de": "",
          "en": "",
          "ru": ""
        },
        "title": {
          "de": "",
          "en": "",
          "ru": ""
        }
      },
      "id": null,
      "shortLinkLabel": {
        "de": "",
        "en": "",
        "ru": ""
      },
      "template": "cta-separator",
      "___mb_type": "cta-separator"
    }
  ],
  "showAdvancedOptions": true,
  "languages": [
    "de",
    "en",
    "ru"
  ],
  "tags": [
    "technical-construction",
    "service"
  ],
  "relatedPages": [],
  "url": {
    "de": "",
    "en": "",
    "ru": ""
  },
  "breadcrumb": [
    {
      "displayName": "Isobau",
      "label": {
        "de": "Isobau",
        "en": "Technical Construction",
        "ru": "Строительство Изоляции"
      },
      "href": {
        "de": "",
        "en": "",
        "ru": ""
      },
      "hash": ""
    },
    {
      "displayName": "Leistungen",
      "label": {
        "de": "Leistungen",
        "en": "Services",
        "ru": "Сервис"
      },
      "hash": "#references",
      "href": {
        "de": "",
        "en": "",
        "ru": ""
      }
    }
  ],
  "templateOverrides": {
    "de": "",
    "en": "",
    "ru": ""
  },
  "title": "insulated-wall-roofing",
  "color": null,
  "___mb_schema": "/.mattrbld/schemas/page.json"
}