{
  "languages": [
    "de",
    "en",
    "ru"
  ],
  "template": "Default",
  "name": {
    "de": "Wartung & Service",
    "en": "Maintenance & Service",
    "ru": "ОБСЛУЖИВАНИЕ И СЕРВИС"
  },
  "breadcrumb": [
    {
      "label": {
        "de": "Luftklima",
        "en": "Air Conditioning",
        "ru": "Вентиляция Воздуха"
      },
      "displayName": "Luftklima"
    },
    {
      "label": {
        "de": "Leistungen",
        "en": "Services",
        "ru": "Сервис"
      },
      "hash": "#references",
      "displayName": "Leistungen"
    }
  ],
  "tags": [
    "air-conditioning",
    "service"
  ],
  "meta": {
    "description": {
      "de": "Die Firma Stadler Luftklima GmbH führt Wartungen an Kühlraumtüren, Schnelllauftoren, Sektionaltoren, Rammschutzsysteme, Glasbord Fugen, Lüftungsanlagen, kanallose Induktionssysteme, ESJET und HACIS Anlagen durch.",
      "en": "Stadler Air Conditioning offers maintenance for cold room, sectional and high-speed doors, skirting protections, glassboard joints, ventilation systems, channel-free induction systems, as well as ESJET and HACIS systems"
    },
    "keywords": null,
    "image": {
      "src": "/content/uploads/social-image-test.jpg",
      "alt": {
        "de": "Logo der Stadler GmbH",
        "en": "Logo of Stadler GmbH",
        "ru": "Логотип компании Stadler GmbH"
      },
      "title": null
    },
    "canonicalUrl": null,
    "cardStyle": "summary_large_image"
  },
  "content": [
    {
      "backgroundImage": {
        "src": "/content/uploads/services/luftklima-3.jpg",
        "alt": {
          "de": "Ein Mann im roten Shirt misst etwas während er vor einer Metallbox mit vielen Luftauslässen steht",
          "en": "Man in a red shirt measuring something standing in front of a metal box with lots of air outlets",
          "ru": ""
        }
      },
      "id": null,
      "shortLinkLabel": null,
      "template": "page-title",
      "___mb_type": "page-title"
    },
    {
      "heading": null,
      "columns": [
        {
          "de": "<p>Wegen der zunehmenden Nachfrage und erweiterten gesetzlichen Vorgaben an Wartung und UVV-Prüfungen installierten wir eine eigene Serviceabteilung. Diese bietet für alle verbauten Anlagen und Systeme maßgeschneiderte Wartungkonzepte an. Das Servicepersonal wird ständig geschult und kann die entsprechenden Qualifikationen vorweisen. Unsere Serviceabteilung hält alle wichtigen Ersatzteile, die zur Funktionssicherung der Anlagen notwendig sind, in einem eigenen Lager vor.</p>",
          "ru": "<p>Связи с увеличением спроса и расширенными юридических требований по техническому обслуживанию и контролем безопасности мы установили нашу собственную сервисную службу,это обеспечивает для установленного оборудования и систем специально разработанные концепции сервисного обслуживания. Наш отдел обслуживания имеет все необходимые запасные части, которые необходимы для обеспечения функций установок.</p>",
          "en": "<p>Due to the increasing demand and expanding statutory requirements for maintenance and UVV-inspections, we established our own service department, which offers tailor-made maintenance concepts for all installed systems. The service team is constantly being trained and has acquired all relevant qualifications. Our service department keeps all important spare parts necessary for guaranteeing the functionality of the systems at hand in a special warehouse.</p>"
        },
        {
          "de": "<p>Somit können wir bei auftretenden Störungen sofort reagieren. Für die Klimaanlagen ESJET®, bieten wir zusätzlich eine moderne Fernwartung an. Damit verringern sich die Ausfallzeiten der Anlagen auf ein Minimum und schaffen zusätzliche Planungssicherheit.</p>",
          "ru": "<p>Таким образом, мы можем немедленно реагировать при возникновении проблем. Для кондиционирования воздуха ESJET® мы также предлагаем современное дистанционное обслуживание. Таким образом, время простоя системы сводится к минимуму.</p>",
          "en": "<p>Therefore we can react immediately should there ever be a dysfunction. On top of that, we offer additional modern remote servicing for all ESJET® air conditioning systems, thereby reducing the downtime of the systems to a minimum and creating additional planning security.</p>"
        }
      ],
      "highlighted": null,
      "id": null,
      "shortLinkLabel": null,
      "template": "text",
      "___mb_type": "text"
    },
    {
      "heading": {
        "de": "Unsere Wartungsangebote auf einen Blick",
        "en": "Our maintenance services at a glance"
      },
      "columns": [
        {
          "de": "<ul><li><p>Wartung von Tür- / und Toranlagen</p></li><li><p>Wartung von Klima- / und Lüftungssystemen</p></li><li><p>Wartung von Induktionssystemen</p></li></ul>",
          "ru": "<ul><li><p>техобслуживание дверей /ворот</p></li><li><p>обслуживания кондиционирования воздуха / и системы вентиляции</p></li><li><p>технического обслуживания индукционных систем</p></li></ul>",
          "en": "<ul><li><p>Maintenance of door and gate systems</p></li><li><p>Maintenance of air conditioning and ventilation systems</p></li><li><p>Maintenance of induction systems</p></li></ul>"
        },
        {
          "de": "<ul><li><p>Wartung von Kälteerzeugungsanlagen</p></li><li><p>Wartung von Brandschutzkomponenten</p></li><li><p>Wartung von Fugen</p></li></ul>",
          "ru": "<ul><li><p>обслуживание холодильного оборудования</p></li><li><p>технического обслуживания компонентов противопожарной защиты</p></li><li><p>обслуживание стыков/швов</p></li></ul>",
          "en": "<ul><li><p>Maintenance of refrigeration systems</p></li><li><p>Maintenance of fire safety measures</p></li><li><p>Maintenance of seams</p></li></ul>"
        }
      ],
      "highlighted": true,
      "id": null,
      "shortLinkLabel": null,
      "template": "text",
      "___mb_type": "text"
    },
    {
      "images": [
        {
          "displayName": "Bild 1",
          "src": "/content/uploads/services/maintenance/luftklima-referenzen_wartung+service_projekt-1_full.jpg",
          "alt": {
            "de": "Ein Mann beim Einmessen der Volumenströme ESJET®",
            "en": "A man calibrating the volume flow rate for ESJET®",
            "ru": ""
          },
          "title": {
            "de": "EINMESSEN DER VOLUMENSTRÖME ESJET®",
            "ru": "одиночный нож объемного расхода ESJET",
            "en": "Calibration of the volume flow rate ESJET"
          }
        },
        {
          "displayName": "Bild 2",
          "src": "/content/uploads/services/maintenance/luftklima-referenzen_wartung+service_projekt-2_full.jpg",
          "alt": {
            "en": "Three men doing the service approval of a recuperator",
            "ru": "",
            "de": "Drei Männer bei der Serviceabnahme eines Wärmetauschers"
          },
          "title": {
            "de": "SERVICEABNAHME WÄRMETAUSCHER",
            "ru": "теплообменник",
            "en": "Service approval of recuperator"
          }
        },
        {
          "displayName": "Bild 3",
          "src": "/content/uploads/services/maintenance/luftklima-referenzen_wartung+service_projekt-3_full.jpg",
          "alt": {
            "de": "Ein Mann bei der Wartung von Luftkanälen",
            "en": "A man during the maintenance of air ducts",
            "ru": ""
          },
          "title": {
            "de": "WARTUNG VON LUFTKANÄLEN",
            "ru": "Измерение расхода индукция сопло",
            "en": "Volume flow rate measurement of induction nozzles"
          }
        },
        {
          "displayName": "Bild 4",
          "src": "/content/uploads/4__esjet-schaltschrank.jpg",
          "alt": {
            "en": "Stadler expert at maintenance of an ultrasonic humidifier",
            "ru": "",
            "de": "Stadler Experte bei der Wartung eines Ultraschallbefeuchters"
          },
          "title": {
            "de": "WARTUNG EINES ULTRASCHALLBEFEUCHTERS",
            "ru": "--- Испытание под давлением очистительного помещения ---",
            "en": "ultrasonic humidifier maintenance"
          }
        },
        {
          "displayName": "Bild 5",
          "src": "/content/uploads/services/maintenance/luftklima-referenzen_wartung+service_projekt-5_full.jpg",
          "alt": {
            "de": "Ein Mann am Computer bei der Fernwartung eines Reiferaums",
            "en": "A man at a computer during the remote maintenance of a ripening room",
            "ru": ""
          },
          "title": {
            "de": "FERNWARTUNG REIFERÄUME ESJET®",
            "ru": "Техническое обслуживание на расстоянии помещения дозревания ESJET",
            "en": "Remote maintenance of ripening rooms ESJET"
          }
        },
        {
          "displayName": "Bild 6",
          "src": "/content/uploads/6__frequenzumformer_close.jpg",
          "alt": {
            "en": "Multiple complicated electrical devices with glowing yellow screens daisy-chained together labelled VLT HVAC Drive frequency converter",
            "ru": "",
            "de": "In Reihe geschaltete, komplizierte Geräte mit gelben Bildschirmen und der Aufschrift VLT HVAC Drive Frequenzumwandler"
          },
          "title": {
            "de": "WARTUNG MSR-TECHNIK",
            "ru": "техобслуживание измерительной техники",
            "en": "Maintenance of instrumentation and control engineering technology"
          }
        }
      ],
      "id": null,
      "shortLinkLabel": null,
      "template": "gallery",
      "___mb_type": "gallery"
    },
    {
      "heading": {
        "de": "SIE WOLLEN MIT UNS ARBEITEN?",
        "ru": "ВЫ ХОТИТЕ РАБОТАТЬ С НАМИ?",
        "en": "YOU WANT TO WORK WITH US?"
      },
      "text": {
        "de": "Senden Sie uns eine E-Mail an <a href=\"mailto:info@stadler-gmbh.de\" title=\"\">info@stadler-gmbh.de</a>, oder rufen sie uns an: +49 8265 9694 0",
        "en": "Send us an e-mail to <a href=\"mailto:info@stadler-gmbh.de\" title=\"\">info@stadler-gmbh.de</a>, or call us: +49 8265 9694 0",
        "ru": "Send us an e-mail to <a href=\"mailto:info@stadler-gmbh.de\" title=\"\">info@stadler-gmbh.de</a>, or call us: +49 8265 9694 0"
      },
      "cta": {
        "label": {
          "de": "PROJEKT STARTEN",
          "ru": "СТАРТ ПРОЕКТА",
          "en": "START PROJECT NOW"
        },
        "href": {
          "de": "/kontakt/",
          "en": "/en/contact-us/",
          "ru": "/ru/kontakt/"
        }
      },
      "image": null,
      "backgroundImage": null,
      "id": null,
      "shortLinkLabel": null,
      "template": "cta-separator",
      "___mb_type": "cta-separator"
    }
  ],
  "displayName": "Wartung & Service",
  "showAdvancedOptions": true,
  "templateOverrides": null,
  "color": null,
  "url": null,
  "menuIndex": 0,
  "relatedPages": null,
  "___mb_schema": "/.mattrbld/schemas/page.json"
}