{
  "languages": [
    "de"
  ],
  "template": "Default",
  "name": {
    "de": "Realisierung",
    "en": "",
    "ru": ""
  },
  "breadcrumb": [
    {
      "label": {
        "de": "Anlagenakustik",
        "en": "",
        "ru": ""
      },
      "displayName": "Anlagenakustik"
    },
    {
      "label": {
        "de": "Leistungen",
        "en": "Services",
        "ru": "Сервис"
      },
      "hash": "#references",
      "displayName": "Leistungen"
    }
  ],
  "tags": [
    "acoustic",
    "service"
  ],
  "meta": {
    "description": {
      "de": "",
      "en": ""
    },
    "keywords": null,
    "image": {
      "src": "/content/uploads/social-image-test.jpg",
      "alt": {
        "de": "Logo der Stadler GmbH",
        "en": "Logo of Stadler GmbH",
        "ru": "Логотип компании Stadler GmbH"
      },
      "title": null
    },
    "canonicalUrl": null,
    "cardStyle": "summary_large_image"
  },
  "content": [
    {
      "backgroundImage": {
        "src": "/content/uploads/01__stadler-aa_real_blockheizkraftwerk.jpg",
        "alt": {
          "de": "Ein blauer Container mit einem Aufbau aus Rohren und Schornsteinen",
          "en": "",
          "ru": ""
        }
      },
      "id": null,
      "shortLinkLabel": null,
      "template": "page-title",
      "___mb_type": "page-title"
    },
    {
      "heading": null,
      "columns": [
        {
          "de": "<p>Wir übernehmen für Sie gerne die Realisierung Ihrer Lüftungs- und Schallschutzanlagen. Dabei greifen wir auf unsere eigene Fertigung sowie auf qualifizierte Lieferanten zurück. Unser durchgängiges Qualitätsmanagementsystem sowie das kundenorientierte Projektmanagement gewährlsieten, dass Ihre Anlage termingerecht und zu Ihrer vollsten Zufriedenheit ausgeliefert, montiert und in Betrieb genommen wird. Auf Wunsch führen wir auch Wartungs- und Servicearbeiten für Sie aus.</p>",
          "ru": "",
          "en": ""
        },
        {
          "de": "<p>Unsere Produkte finden Anwendung in Branchen wie Energieerzeugung, Bau, Industrie- und Anlagenbau sowie in der Lebensmittelherstellung. Überzeugen Sie sich selbst von unseren Fähigkeiten und senden uns noch heute Ihre Anfrage zu.</p>",
          "ru": "",
          "en": ""
        }
      ],
      "highlighted": null,
      "id": null,
      "shortLinkLabel": null,
      "template": "text",
      "___mb_type": "text"
    },
    {
      "heading": {
        "de": "Unsere Leistungsangebote auf einen Blick",
        "en": ""
      },
      "columns": [
        {
          "de": "<ul><li>Lüftungsanlagen</li><li>Schalldämpfer in allen Größen</li><li>Klimatisierung & Hygiene</li><li>Schallschutzwände</li></ul>",
          "ru": "",
          "en": ""
        },
        {
          "de": "<ul><li>Schallschutzkabinen</li><li>Absorbersysteme</li><li>verschiedene Materialien und Oberflächenbehandlungen</li></ul>",
          "ru": "",
          "en": ""
        }
      ],
      "highlighted": true,
      "id": null,
      "shortLinkLabel": null,
      "template": "text",
      "___mb_type": "text"
    },
    {
      "images": [
        {
          "displayName": "Bild 1",
          "src": "/content/uploads/02__stadler-aa_real_projektmanagement.jpg",
          "alt": {
            "de": "Eine Hand vor einer holografischen Projektmanagementansicht",
            "en": "",
            "ru": ""
          },
          "title": {
            "de": "",
            "ru": "",
            "en": ""
          }
        },
        {
          "displayName": "Bild 2",
          "src": "/content/uploads/03__stadler-aa_real_blechbearb-luftkanal.jpg",
          "alt": {
            "en": "",
            "ru": "",
            "de": "Eine Hand, die einem Hammer hält und damit das Blech eines Luftkanals bearbeitet"
          },
          "title": {
            "de": "",
            "ru": "",
            "en": ""
          }
        },
        {
          "displayName": "Bild 3",
          "src": "/content/uploads/04__stadler-aa_real_filterghause-dach.jpg",
          "alt": {
            "de": "Mehrere gold-braune haubenförmige Filgergehäuse an der Siete von Gebäuden oder nah am Boden",
            "en": "",
            "ru": ""
          },
          "title": {
            "de": "",
            "ru": "",
            "en": ""
          }
        }
      ],
      "id": null,
      "shortLinkLabel": null,
      "template": "gallery",
      "___mb_type": "gallery"
    },
    {
      "heading": {
        "de": "Passende Downloads zum Thema",
        "en": "Downloadable Content for this Topic",
        "ru": ""
      },
      "downloads": [
        "dl/infoblatt-anlagenakustik-realisierung"
      ],
      "id": null,
      "shortLinkLabel": null,
      "template": "specific-download-items",
      "___mb_type": "specific-download-items"
    },
    {
      "heading": {
        "de": "SIE WOLLEN MIT UNS ARBEITEN?",
        "ru": "ВЫ ХОТИТЕ РАБОТАТЬ С НАМИ?",
        "en": "YOU WANT TO WORK WITH US?"
      },
      "text": {
        "de": "Senden Sie uns eine E-Mail an <a href=\"mailto:info@stadler-gmbh.de\" title=\"\">info@stadler-gmbh.de</a>, oder rufen sie uns an: +49 8265 9694 0",
        "en": "Send us an e-mail to <a href=\"mailto:info@stadler-gmbh.de\" title=\"\">info@stadler-gmbh.de</a>, or call us: +49 8265 9694 0",
        "ru": "Send us an e-mail to <a href=\"mailto:info@stadler-gmbh.de\" title=\"\">info@stadler-gmbh.de</a>, or call us: +49 8265 9694 0"
      },
      "cta": {
        "label": {
          "de": "PROJEKT STARTEN",
          "ru": "СТАРТ ПРОЕКТА",
          "en": "START PROJECT NOW"
        },
        "href": {
          "de": "/kontakt/",
          "en": "/en/contact-us/",
          "ru": "/ru/kontakt/"
        }
      },
      "image": null,
      "backgroundImage": null,
      "id": null,
      "shortLinkLabel": null,
      "template": "cta-separator",
      "___mb_type": "cta-separator"
    }
  ],
  "displayName": "Realisierung",
  "showAdvancedOptions": true,
  "title": "Realisierung",
  "templateOverrides": null,
  "color": null,
  "url": null,
  "menuIndex": 0,
  "relatedPages": null,
  "___mb_schema": "/.mattrbld/schemas/page.json"
}