{
  "name": {
    "de": "Amadeus Stadler",
    "en": "Amadeus Stadler",
    "ru": "Амадей Штадлер"
  },
  "email": "",
  "role": {
    "de": "Webentwickler und Content Manager",
    "en": "Webdeveloper and Content Manager",
    "ru": "Веб-разработчик и контент-менеджер"
  },
  "image": null,
  "greeting": null,
  "message": null,
  "hideInMosaic": null,
  "id": "amadeus-stadler",
  "___mb_schema": "/.mattrbld/schemas/employee.json"
}
