{
  "name": {
    "de": "Fabio Ferraz",
    "en": "Fabio Ferraz",
    "ru": "Фабио Ферраз"
  },
  "email": "",
  "role": {
    "de": "Obermonteur Paneelbau",
    "en": "Senior assembler panel construction",
    "ru": "Старший монтажник панельного строительства"
  },
  "image": null,
  "greeting": null,
  "message": null,
  "hideInMosaic": null,
  "id": "fabio-ferraz",
  "___mb_schema": "/.mattrbld/schemas/employee.json"
}
