{
  "fields": [
    {
      "type": "image",
      "default": null,
      "icon": "image",
      "key": "image",
      "label": "Bild",
      "options": {
        "resolutionHint": "96x96px",
        "removable": true,
        "simple": false
      },
      "tab": "ungrouped",
      "validation": {
        "max": 1,
        "required": false,
        "unit": "filesize (MB)"
      },
      "value": null,
      "version": 1,
      "visibility": {
        "hidden": false,
        "showByValue": {
          "field": null
        }
      }
    },
    {
      "type": "rich text",
      "default": null,
      "icon": "text",
      "key": "body",
      "label": "Text",
      "localised": true,
      "options": {
        "outputFormat": "html",
        "blockFormats": [],
        "inlineFormats": [
          "em",
          "strong",
          "link"
        ],
        "formatOptions": [],
        "inputRuleOptions": [
          "autoquotes",
          "dashes",
          "ellipsis",
          "noDoubleCaps",
          "noDoubleSpace"
        ],
        "minHeading": 2,
        "maxHeading": 4,
        "codeLangs": [
          "html",
          "css",
          "javascript",
          "markdown"
        ],
        "allowRaw": false,
        "urlTemplate": "",
        "urlSuffix": "",
        "linkOptions": [
          "allowExternal",
          "allowInternal"
        ]
      },
      "tab": "ungrouped",
      "validation": {
        "enforceMinMax": true,
        "max": null,
        "min": null,
        "regex": null,
        "regexError": null,
        "required": false,
        "unit": "length"
      },
      "value": null,
      "version": 1,
      "visibility": {
        "hidden": false,
        "showByValue": {
          "field": null
        }
      }
    },
    {
      "type": "date",
      "default": null,
      "icon": "calendar",
      "key": "expires",
      "label": "Anzeigen bis",
      "options": {
        "outputFormat": "iso",
        "removable": false,
        "showTime": true,
        "defaultToNow": false,
        "useAsUpdatedAt": false,
        "only": "future"
      },
      "tab": "ungrouped",
      "validation": {
        "max": null,
        "min": null,
        "required": true,
        "unit": "date",
        "isString": true
      },
      "value": null,
      "version": 2,
      "visibility": {
        "hidden": false,
        "showByValue": {
          "field": null
        }
      }
    }
  ],
  "tabs": [
    {
      "label": "ungrouped",
      "groupAs": null
    }
  ]
}
