{
  "fields": [
    {
      "type": "id",
      "icon": "hash",
      "key": "id",
      "label": "Einzigartige ID",
      "options": {
        "type": "template",
        "idTemplate": "dl/:name.de",
        "editable": false
      },
      "tab": "ungrouped",
      "validation": {
        "required": true
      },
      "value": null,
      "version": 3,
      "visibility": {
        "hidden": false,
        "showByValue": {
          "field": null
        }
      }
    },
    {
      "type": "text",
      "default": null,
      "icon": "text-input",
      "key": "name",
      "label": "Name",
      "localised": true,
      "options": {
        "wrapping": true,
        "multiline": false
      },
      "tab": "ungrouped",
      "validation": {
        "enforceMinMax": true,
        "max": null,
        "min": null,
        "regex": null,
        "regexError": null,
        "required": true,
        "unit": "length"
      },
      "value": null,
      "version": 1,
      "visibility": {
        "hidden": false,
        "showByValue": {
          "field": null
        }
      }
    },
    {
      "type": "date",
      "default": null,
      "icon": "calendar",
      "key": "date",
      "label": "Veröffentlichungsdatum",
      "options": {
        "outputFormat": "iso",
        "removable": false,
        "showTime": false,
        "defaultToNow": false,
        "useAsUpdatedAt": false,
        "only": null
      },
      "tab": "ungrouped",
      "validation": {
        "max": null,
        "min": null,
        "required": true,
        "unit": "date",
        "isString": true
      },
      "value": null,
      "version": 2,
      "visibility": {
        "hidden": false,
        "showByValue": {
          "field": null
        }
      }
    },
    {
      "type": "text",
      "default": null,
      "icon": "text-input",
      "key": "description",
      "label": "Beschreibung",
      "localised": true,
      "options": {
        "wrapping": true,
        "multiline": false
      },
      "tab": "ungrouped",
      "validation": {
        "enforceMinMax": true,
        "max": null,
        "min": null,
        "regex": null,
        "regexError": null,
        "required": false,
        "unit": "length"
      },
      "value": null,
      "version": 1,
      "visibility": {
        "hidden": false,
        "showByValue": {
          "field": null
        }
      }
    },
    {
      "type": "file",
      "default": null,
      "icon": "attachment",
      "key": "file",
      "label": "Datei",
      "localised": false,
      "options": {
        "removable": false,
        "root": "/content/uploads",
        "filetypes": [
          "pdf",
          "zip"
        ]
      },
      "tab": "ungrouped",
      "validation": {
        "max": 1,
        "required": true,
        "unit": "filesize (MB)"
      },
      "value": null,
      "version": 1,
      "visibility": {
        "hidden": false,
        "showByValue": {
          "field": null
        }
      }
    },
    {
      "type": "image",
      "icon": "image",
      "key": "thumbnail",
      "label": "Thumbnail",
      "tab": "ungrouped",
      "value": null,
      "version": 1,
      "visibility": {
        "hidden": false,
        "showByValue": {
          "field": null
        }
      },
      "default": null,
      "options": {
        "resolutionHint": "210x190px",
        "removable": false,
        "simple": false
      },
      "validation": {
        "max": 1,
        "required": true,
        "unit": "filesize (MB)"
      }
    },
    {
      "type": "tags",
      "default": null,
      "icon": "tags",
      "key": "categories",
      "label": "Kategorien",
      "localised": false,
      "options": {
        "allowUnsuggested": false,
        "autocompleteModel": {
          "path": "/src/data/availableCategories.json",
          "key": "availableCategories"
        }
      },
      "tab": "ungrouped",
      "validation": {
        "max": null,
        "min": null,
        "unit": "tags"
      },
      "value": null,
      "version": 1,
      "visibility": {
        "hidden": false,
        "showByValue": {
          "field": null
        }
      }
    },
    {
      "type": "languages",
      "default": null,
      "icon": "language",
      "key": "languages",
      "label": "Sprachen",
      "tab": "ungrouped",
      "validation": {
        "min": 1,
        "unit": "languages"
      },
      "value": null,
      "version": 1,
      "visibility": {
        "hidden": false,
        "showByValue": {
          "field": null
        }
      }
    },
    {
      "type": "text",
      "default": null,
      "icon": "text-input",
      "key": "displayName",
      "label": "Anzeigename",
      "localised": false,
      "options": {
        "wrapping": true,
        "multiline": false
      },
      "tab": "ungrouped",
      "validation": {
        "enforceMinMax": true,
        "max": null,
        "min": null,
        "regex": null,
        "regexError": null,
        "required": false,
        "unit": "length"
      },
      "value": null,
      "version": 1,
      "visibility": {
        "hidden": true,
        "showByValue": {
          "field": null
        }
      }
    }
  ],
  "tabs": [
    {
      "label": "ungrouped",
      "groupAs": null
    }
  ]
}
