{
  "name": {
    "de": "Präsentation ESJET® Day"
  },
  "date": "2019-06-09",
  "description": {
    "de": "PDF des Vortrags von Rüdiger Stadler zum Thema Luftklimasysteme. Allgemeine Funktionsprinzipien und spezielle Merkmale von Induktionssystemen."
  },
  "file": "/content/uploads/2019-06_stadler-esjetday-2019__praes-luftklimasysteme.pdf",
  "thumbnail": {
    "src": "/content/uploads/downloads/esjet-presentation-2019.jpg"
  },
  "languages": [
    "de"
  ],
  "displayName": "Präsentation Esjet Day"
}
