{
  "name": {
    "de": "Ejupi Leutrim",
    "en": "Ejupi Leutrim",
    "ru": "Эюпи Лейтрим"
  },
  "email": "ejupi.leutrin@stadler-gmbh.de",
  "role": {
    "de": "Isolierer",
    "en": "Insulator",
    "ru": "Изолятор"
  },
  "image": {
    "src": "/content/uploads/team/ejupi-leutrim.jpg",
    "alt": {
      "de": "Ein Porträtfoto von Ejupi Leutrim",
      "en": "A portrait shot of Ejupi Leutrim",
      "ru": "Портретное фото Эюпи Лейтрим"
    },
    "title": null
  },
  "greeting": null,
  "message": null,
  "hideInMosaic": null,
  "id": "ejupi-leutrim",
  "___mb_schema": "/.mattrbld/schemas/employee.json"
}