{
  "email": "florian.kirschenhofer@stadler-gmbh.de",
  "id": "florian-kirschenhofer",
  "name": {
    "de": "Florian Kirschenhofer",
    "en": "Florian Kirschenhofer",
    "ru": "Флорин Kиршенхофер"
  },
  "role": {
    "de": "Geschäftsführer Isobau",
    "en": "Procurator Technical Construction",
    "ru": "уполномоченый отдела тех. изоляции"
  },
  "image": {
    "src": "/content/uploads/team/florian-kirschenhofer.jpg",
    "alt": {
      "de": "Porträt eines kurzhaarigen Mannes im Jackett an einem Schreibtisch",
      "en": "Portrait of a short-haired man wearing a suit coat at a desk",
      "ru": ""
    },
    "title": {
      "de": "",
      "en": "",
      "ru": ""
    }
  },
  "greeting": {
    "de": "Hallo!",
    "en": "Hello!",
    "ru": "ДОБРЫЙ ДЕНЬ!"
  },
  "message": {
    "de": "Ich bin ihr erster Ansprechpartner für Ihre Projektidee. Sprechen Sie mich an.",
    "en": "I‘m the first contact for your project ideas. Please get in touch.",
    "ru": "Я компетентный собеседник для вашего проекта"
  },
  "hideInMosaic": null,
  "___mb_schema": "/.mattrbld/schemas/employee.json"
}