{
  "email": "manfred.rogg@stadler-gmbh.de",
  "id": "manfred-rogg",
  "name": {
    "de": "Manfred Rogg",
    "en": "Manfred Rogg",
    "ru": "Манфред Рогг"
  },
  "role": {
    "de": "Abteilungsleiter techn.Isolierungen, Ausbilder",
    "en": "Head of department technical insulation, instructor",
    "ru": "Отдел управления тех.изоляции"
  },
  "image": {
    "src": "/content/uploads/team/manfred-rogg.jpg",
    "alt": {
      "de": "Porträt eines Mannes in einem roten STADLER-Pullover an einem Schreibtisch",
      "en": "Portrait of a man sitting at a desk wearing a red STADLER sweater",
      "ru": ""
    },
    "title": {
      "de": "",
      "en": "",
      "ru": ""
    }
  },
  "greeting": {
    "de": "Dialog ist alles",
    "en": "Communication matters",
    "ru": "Диалог важен"
  },
  "message": {
    "de": "Sobald wir uns regelmäßig austauschen und abstimmen, werden wir ein hervorragendes Projektergebnis erzielen. Ich freue mich auf unsere Zusammenarbeit.",
    "en": "When we exchange ideas and feedback regularly, we will achieve an excellent result. I‘m looking forward to working together.",
    "ru": "После обсуждения поставленных задач и регулярного согласования мы сможем совместно достичь отличных результатов. Я с нетерпением жду нашего сотрудничества."
  },
  "hideInMosaic": null,
  "___mb_schema": "/.mattrbld/schemas/employee.json"
}