{
  "name": {
    "de": "Musa Dibba",
    "en": "Musa Dibba",
    "ru": "Муса Дибба"
  },
  "email": "",
  "role": {
    "de": "Auszubildender Metallbauer",
    "en": "Apprentice Metal Worker",
    "ru": "Ученик рабочего по металлу"
  },
  "image": {
    "src": "/content/uploads/team/musa-dibba.jpg",
    "alt": {
      "de": "Ein Porträtfoto von Musa Dibba",
      "en": "A portrait shot of Musa Dibba",
      "ru": "Портретное фото Муса Дибба"
    }
  },
  "greeting": {
    "de": "Hallo, ich freue mich auf den Kontakt zu Ihnen!"
  },
  "message": null,
  "hideInMosaic": null,
  "id": "musa-dibba",
  "___mb_schema": "/.mattrbld/schemas/employee.json"
}
