{
  "name": {
    "de": "Nico Plapp",
    "en": "Nico Plapp",
    "ru": "Нико Плапп"
  },
  "email": "nico.plapp@stadler-gmbh.de",
  "role": {
    "de": "Projektingenieur Anlagenakustik",
    "en": "Project Engineer Facility Accoustics"
  },
  "image": {
    "src": "/content/uploads/team/nico-plapp.jpg",
    "alt": {
      "de": "Ein Porträtfoto von Nico Plapp",
      "en": "A portrait shot of Nico Plapp",
      "ru": "Портретное фото Нико Плапп"
    }
  },
  "greeting": {
    "de": "Hallo, ich freue mich auf den Kontakt zu Ihnen!"
  },
  "message": null,
  "hideInMosaic": null,
  "id": "nico-plapp",
  "___mb_schema": "/.mattrbld/schemas/employee.json"
}
