{
  "email": "ralph.missner@stadler-gmbh.de",
  "id": "ralph-missner",
  "name": {
    "de": "Ralph Missner",
    "en": "Ralph Missner",
    "ru": "Ральф Мисснер"
  },
  "role": {
    "de": "Abteilungsleiter Isobau, Ausbilder",
    "en": "Head of department panel assembly, instructor",
    "ru": "Отдел управления конструкция панелей"
  },
  "image": {
    "src": "/content/uploads/team/ralph-missner.jpg",
    "alt": {
      "de": "Porträt eines jungen Mannes an einem Schreibtisch",
      "en": "Portrait of a young man sitting at a desk",
      "ru": ""
    },
    "title": {
      "de": "",
      "en": "",
      "ru": ""
    }
  },
  "greeting": {
    "de": "Hallo & willkommen!",
    "en": "Hello & welcome",
    "ru": "Здравствуйте & welcome!"
  },
  "message": {
    "de": "Sie haben Fragen, Probleme oder Ideen, dann sprechen Sie mich an oder schicken Sie eine Mail. Ich antworte so schnell wie möglich.",
    "en": "Do you have any questions, problems or ideas? Please contct me by phone or email and I will reply as quickly as possible.",
    "ru": "У вас есть какие либо вопросы или идеи, свяжитесь со мной по электронную почте. Адрес эл. почтыНАПИШИТЕ МНЕ СООБЩЕНИЕ"
  },
  "hideInMosaic": null,
  "___mb_schema": "/.mattrbld/schemas/employee.json"
}