{
  "availableCategories": [
    "air-conditioning",
    "facility-acoustics",
    "holding",
    "metal-engineering",
    "technical-construction",
    "general-contractor"
  ],
  "___mb_schema": "/.mattrbld/schemas/data-files/available-categories.json"
}
